%YAML 1.1
%TAG !u! tag:unity3d.com,2011:
--- !u!114 &11400000
MonoBehaviour:
  m_ObjectHideFlags: 0
  m_CorrespondingSourceObject: {fileID: 0}
  m_PrefabInstance: {fileID: 0}
  m_PrefabAsset: {fileID: 0}
  m_GameObject: {fileID: 0}
  m_Enabled: 1
  m_EditorHideFlags: 0
  m_Script: {fileID: 11500000, guid: 54d21f6ece3b46479f0c328f8c6007e0, type: 3}
  m_Name: Gold
  m_EditorClassIdentifier: 
  colorMode: 3
  topLeft: {r: 0.9716981, g: 0.8869718, b: 0, a: 1}
  topRight: {r: 0.972549, g: 0.8862745, b: 0, a: 1}
  bottomLeft: {r: 0.990566, g: 0.72796607, b: 0.06074228, a: 1}
  bottomRight: {r: 0.99215686, g: 0.7294118, b: 0.05882353, a: 1}
